,level_0,level_1,pred,obs,error,id,index,Group.1,v_CA16_2213,v_CA16_2540,v_CA16_406,gridId,GeoUID,Q_socio,neighTouching,numberNeigh,numberDA,rastID,pathImg
1862,train,1862,0.0121175945,0.012120317279434798,2.722798920272093e-06,train,2074,178,38973.61717224469,3.6820211997795047,466.18873657689863,178pointe_aux_trembles,24662948,Pointe-aux-Trembles,Pointe-aux-Trembles,1.0,2.0,pointe_aux_trembles,/home/charles/Projects/NeuralNetPopulation/Output/Mapbox/100/Images/178pointe_aux_trembles.png
2864,test,496,0.18927804,0.18929742095384802,1.9384597875732323e-05,test,1133,92,23615.591166376948,21.49941443100865,7281.024372313708,92montreal_nord,24662788,Montréal-Nord,Montréal-Nord,1.0,2.0,montreal_nord,/home/charles/Projects/NeuralNetPopulation/Output/Mapbox/100/Images/92montreal_nord.png
1827,train,1827,0.0005430281,0.006712873297902713,0.006169845181676517,train,2112,40,27712.0,30.0,258.2,40pointe_st_charles,24661242,Pointe Saint-Charles,Pointe Saint-Charles,1.0,1.0,pointe_st_charles,/home/charles/Projects/NeuralNetPopulation/Output/Mapbox/100/Images/40pointe_st_charles.png
2941,test,573,-0.0013586581,0.09102973531409801,0.09238839338943065,test,802,88,35327.22960581384,12.639652219021512,3501.314059576153,88lachine,24662219,Lachine,Lachine,1.0,2.0,lachine,/home/charles/Projects/NeuralNetPopulation/Output/Mapbox/100/Images/88lachine.png
263,train,263,0.2657713,0.8227768017389107,0.5570055021383095,train,439,189,18448.710462833158,42.193934165397295,31646.801716838472,189cote_des_neiges,24661314,Côte-des-Neiges,Côte-des-Neiges,1.0,4.0,cote_des_neiges,/home/charles/Projects/NeuralNetPopulation/Output/Mapbox/100/Images/189cote_des_neiges.png
2738,test,370,0.1803594,0.9740013077604074,0.7936419144021768,test,1462,69,21199.995683936315,39.46772476745407,37463.411940503735,69ndg,24663278,Notre-Dame-de-Grâce,Notre-Dame-de-Grâce,1.0,3.0,ndg,/home/charles/Projects/NeuralNetPopulation/Output/Mapbox/100/Images/69ndg.png
1823,train,1823,0.6160294,0.8529255276909133,0.23689614593889918,train,7,31,26104.203652083877,21.796454754238948,32806.424533381,31ahuntsic,24660515,Bordeaux-Cartierville,Bordeaux-Cartierville,1.0,2.0,ahuntsic,/home/charles/Projects/NeuralNetPopulation/Output/Mapbox/100/Images/31ahuntsic.png
2499,test,131,0.4607707,0.262523693932347,-0.1982470024692491,test,2530,84,27603.399112342264,18.832917357894953,10097.556555180248,84saint_henri,24661052,Saint-Henri,Saint-Henri,1.0,2.0,saint_henri,/home/charles/Projects/NeuralNetPopulation/Output/Mapbox/100/Images/84saint_henri.png
